[{"id":1,"first_name":"Hill","last_name":"Campling","email":"hcampling0@un.org","password":"1Q34gLOY"},
{"id":2,"first_name":"Frederic","last_name":"Youson","email":"fyouson1@cargocollective.com","password":"gE0DBo"},
{"id":3,"first_name":"Tammi","last_name":"Eyers","email":"teyers2@mapy.cz","password":"e31ccJS9zB"},
{"id":4,"first_name":"Stefano","last_name":"Smythin","email":"ssmythin3@wikipedia.org","password":"6V3p406Ed2P"},
{"id":5,"first_name":"Garfield","last_name":"Bidewel","email":"gbidewel4@1und1.de","password":"GNtdN3rJkWH"},
{"id":6,"first_name":"Doe","last_name":"Scawton","email":"dscawton5@quantcast.com","password":"rQSyfbd2Umn9"},
{"id":7,"first_name":"Charyl","last_name":"Follit","email":"cfollit6@phoca.cz","password":"cK6gzeGGYLU"},
{"id":8,"first_name":"Thurston","last_name":"Maving","email":"tmaving7@webeden.co.uk","password":"wGs5je9ovHvK"},
{"id":9,"first_name":"Ruthe","last_name":"Creegan","email":"rcreegan8@cmu.edu","password":"lOYDe0H7CkAF"},
{"id":10,"first_name":"Giavani","last_name":"Filpo","email":"gfilpo9@wired.com","password":"hWdr0Sirnq"},
{"id":11,"first_name":"Harriott","last_name":"Magovern","email":"hmagoverna@mozilla.org","password":"zJzJwxKtV6l"},
{"id":12,"first_name":"Thatcher","last_name":"Lackmann","email":"tlackmannb@bluehost.com","password":"9xFngLuOFKwu"},
{"id":13,"first_name":"Abigale","last_name":"April","email":"aaprilc@joomla.org","password":"f1b9sq00wYE"},
{"id":14,"first_name":"Frederico","last_name":"Lowrance","email":"flowranced@cbsnews.com","password":"qSxOhLLc"},
{"id":15,"first_name":"Lowe","last_name":"Parmer","email":"lparmere@photobucket.com","password":"vxL3wbQ24cra"},
{"id":16,"first_name":"Carena","last_name":"Grigoriev","email":"cgrigorievf@people.com.cn","password":"ksxDJ6X9o"},
{"id":17,"first_name":"Courtney","last_name":"Caulcott","email":"ccaulcottg@blogtalkradio.com","password":"v0UWJviiRh5o"},
{"id":18,"first_name":"Chloette","last_name":"Lyfe","email":"clyfeh@arstechnica.com","password":"abjgb9St"},
{"id":19,"first_name":"Adey","last_name":"Nutkin","email":"anutkini@hexun.com","password":"OeaAKs"},
{"id":20,"first_name":"Carolyn","last_name":"Ferrieroi","email":"cferrieroij@howstuffworks.com","password":"A6vPBGRPMD"},
{"id":21,"first_name":"Skell","last_name":"Leynham","email":"sleynhamk@photobucket.com","password":"Zv67Nqru"},
{"id":22,"first_name":"Kelcy","last_name":"Moreman","email":"kmoremanl@opera.com","password":"jy8CgKzIeKRm"},
{"id":23,"first_name":"Lucian","last_name":"Gasgarth","email":"lgasgarthm@who.int","password":"lD2nVl"},
{"id":24,"first_name":"Aarika","last_name":"McEniry","email":"amceniryn@amazonaws.com","password":"eMIRyWXMa"},
{"id":25,"first_name":"Josias","last_name":"Kenefick","email":"jkeneficko@epa.gov","password":"UOwcrl"},
{"id":26,"first_name":"Clary","last_name":"Ferrant","email":"cferrantp@amazon.co.uk","password":"PNbtPC1E"},
{"id":27,"first_name":"Concettina","last_name":"Blowing","email":"cblowingq@hud.gov","password":"DM26s4iC"},
{"id":28,"first_name":"Sashenka","last_name":"Swiers","email":"sswiersr@cmu.edu","password":"Ivpiwmkp33t"},
{"id":29,"first_name":"Franciska","last_name":"Kilborn","email":"fkilborns@topsy.com","password":"5u13rfWE"},
{"id":30,"first_name":"Maurizia","last_name":"Corking","email":"mcorkingt@mapquest.com","password":"TVsmKxe"}]